%YAML 1.1
%TAG !u! tag:unity3d.com,2011:
--- !u!114 &11400000
MonoBehaviour:
  m_ObjectHideFlags: 0
  m_PrefabParentObject: {fileID: 0}
  m_PrefabInternal: {fileID: 0}
  m_GameObject: {fileID: 0}
  m_Enabled: 1
  m_EditorHideFlags: 0
  m_Script: {fileID: 11500000, guid: 3ea155e8882d8458a99ec88c85cd5879, type: 3}
  m_Name: Table
  m_EditorClassIdentifier: 
  _size: {x: 1, y: 1, z: 1}
  _sprite: {fileID: 0}
  _isVertical: 0
  _isHorizontal: 1
